第 58 章 相互依賴數據及簡單的應對方案 | 醫學統計學
…
# transform data into long format
pefr_long <- pefr %>%
  gather(key, value, -id) %>%
  separate(key, into = c("measurement", "occasion"), sep = 2) %>%
  arrange(id, occasion) %>%
  spread(measurement, value)
pefr_long

## # A tibble: 34 x 4
##       id occasion    wm    wp
##    <dbl> <chr>    <dbl> <dbl>
##  1     1 1          512   494
##  2     1 2          525   490
##  3     2 1          430   395
##  4     2 2          415   397
##  5     3 1          520   516
##  6     3 2          508   512
##  7     4 1          428   434
##  8     4 2          444   401
##  9     5 1          500   476
## 10     5 2          500   470
## # ... with 24 more rows
…
# transform data into long format
pefr_long <- pefr %>%
  gather(key, value, -id) %>%
  separate(key, into = c("measurement", "occasion"), sep = 2) %>%
  arrange(id, occasion) %>%
  spread(measurement, value)
pefr_long

## # A tibble: 34 x 4
##       id occasion    wm    wp
##    <dbl> <chr>    <dbl> <dbl>
##  1     1 1          512   494
##  2     1 2          525   490
##  3     2 1          430   395
##  4     2 2          415   397
##  5     3 1          520   516
##  6     3 2          508   512
##  7     4 1          428   434
##  8     4 2          444   401
##  9     5 1          500   476
## 10     5 2          500   470
## # ... with 24 more rows
…
##  obs. mean   median  s.d.   min.   max.  
##  12   10.167 8.25    6.073  3.5    23

59.5.3 把數據從寬 (wide) 改變成長 (long) 的形式

# transform data into long format
ghq_long <- ghq %>%
  gather(key, value, -id, -mean) %>%
  separate(key, into = c("measurement", "occasion"), sep = 3) %>%
  arrange(id, occasion) %>%
  spread(measurement, value)
ghq_long

## # A tibble: 24 x 4
##       id  mean occasion   GHQ
##    <dbl> <dbl> <chr>    <dbl>
##  1     1  12   1           12
##  2     1  12   2           12
##  3     2   7.5 1            8
##  4     2   7.5 2            7
##  5     3  23   1           22
##  6     3  23   2           24
##  7     4  12   1           10
##  8     4  12   2           14
##  9     5   9   1           10
## 10     5   9   2            8
## # ... with 14 more rows
…
