第 71 章 生存分析入門 | 醫學統計學
…
with(pbcbase, summ(time[d==0], graph = FALSE))

##  obs. mean   median  s.d.   min.   max.  
##  95   4.587  4.616   3.052  0      11.644

71.9.1.4 讀入另一個數據 whitehall.csv，使用是否發生冠心病 chd 變量作爲事件變量。仔細觀察其時間的格式，timein, timeout, timebth，各自是什麼含義？1987 年 1 月 30 日發生了什麼事件？

whitehall <-  read_dta("backupfiles/whitehall.dta")
# timebth 是每個患者的出生日期
# timein  是每個患者進入試驗的日期，且注意到許多患者的進入試驗日期是相同的
# timeout 是隨訪結束的日期，對於 chd = 1 的人，這個日期是其死於冠心病的日期，
# 其餘的人則是刪失日期，且注意到許多刪失日期都是1987年1月30日，推測這是行政刪失日期。
whitehall[,c(1,3,12:14)]

## # A tibble: 1,677 x 5
##       id   chd timein     timeout    timebth   
##    <dbl> <dbl> <date>     <date>     <date>    
##  1  5001     0 1967-09-13 1987-01-30 1920-03-20
##  2  5019     0 1967-09-13 1987-01-30 1911-08-06
##  3  5038     0 1967-09-13 1987-01-30 1916-04-03
##  4  5039     0 1967-09-13 1987-01-30 1916-08-02
##  5  5042     0 1967-09-13 1983-04-12 1912-03-20
##  6  5052     0 1967-09-13 1984-07-10 1913-04-07
##  7  5064     0 1967-09-15 1984-05-13 1921-04-30
##  8  5078     1 1967-09-15 1983-11-29 1919-12-25
##  9  5089     0 1967-09-15 1987-01-30 1919-10-11
## 10  5090     0 1967-09-15 1987-01-30 1908-03-31
## # ... with 1,667 more rows
…
# 錯誤地認爲所有人都從出生日期開始進入試驗的時間尺度
M2 <- survfit(Surv((timeout - timebth)/365.25, event = chd) ~ 1, data = whitehall)
summ(M2$time, graph = FALSE)

##  obs. mean   median  s.d.   min.   max.  
##  1563 68.638 67.986  6.651  44.391 85.766

71.9.2 擬合最簡單的指數分布生存數據

mydata <- read_csv("backupfiles/surv_data_practical1.csv")
mydata

## # A tibble: 100 x 1
##    surv.times
##         <dbl>
##  1      0.442
##  2      2.01 
##  3      2.26 
##  4      1.64 
##  5      9.88 
##  6      1.19 
##  7      3.72 
##  8      7.14 
##  9     11.3  
## 10      6.69 
## # ... with 90 more rows
…
