第 69 章 相互依賴數據及簡單的應對方案 | 醫學統計學
…
# transform data into long format
pefr_long <- pefr %>%
  gather(key, value, -id) %>%
  separate(key, into = c("measurement", "occasion"), sep = 2) %>%
  arrange(id, occasion) %>%
  spread(measurement, value)
pefr_long

## # A tibble: 34 x 4
##       id occasion    wm    wp
##    <dbl> <chr>    <dbl> <dbl>
##  1     1 1          512   494
##  2     1 2          525   490
##  3     2 1          430   395
##  4     2 2          415   397
##  5     3 1          520   516
##  6     3 2          508   512
##  7     4 1          428   434
##  8     4 2          444   401
##  9     5 1          500   476
## 10     5 2          500   470
## # … with 24 more rows
…
