醫學統計學
…
# transform data into long format
pefr_long <- pefr %>%
  gather(key, value, -id) %>%
  separate(key, into = c("measurement", "occasion"), sep = 2) %>%
  arrange(id, occasion) %>%
  spread(measurement, value)
pefr_long

## # A tibble: 34 x 4
##       id occasion    wm    wp
##    <dbl> <chr>    <dbl> <dbl>
##  1  1.00 1          512   494
##  2  1.00 2          525   490
##  3  2.00 1          430   395
##  4  2.00 2          415   397
##  5  3.00 1          520   516
##  6  3.00 2          508   512
##  7  4.00 1          428   434
##  8  4.00 2          444   401
##  9  5.00 1          500   476
## 10  5.00 2          500   470
## # ... with 24 more rows
…
